{
  "formatVersion": 1,
  "database": {
    "version": 1,
    "identityHash": "b244f78566540146e76198378b9aa5b1",
    "entities": [
      {
        "tableName": "my_moods_table",
        "createSql": "CREATE TABLE IF NOT EXISTS `${TABLE_NAME}` (`did` INTEGER PRIMARY KEY AUTOINCREMENT NOT NULL, `time_posted` TEXT NOT NULL, `mood_id` INTEGER NOT NULL, `mood_type` INTEGER NOT NULL, `mood_caption` TEXT, `mood_text` TEXT, `mood_status` INTEGER NOT NULL, `view_count` INTEGER NOT NULL, `font_color` TEXT, `background_color` TEXT, `photo_path` TEXT, `view_status` INTEGER NOT NULL, `full_name` TEXT, `mood_count` INTEGER, `viewed_moods` INTEGER, `user_photo` TEXT, `date_created` TEXT)",
        "fields": [
          {
            "fieldPath": "id",
            "columnName": "did",
            "affinity": "INTEGER",
            "notNull": true
          },
          {
            "fieldPath": "time_posted",
            "columnName": "time_posted",
            "affinity": "TEXT",
            "notNull": true
          },
          {
            "fieldPath": "mood_id",
            "columnName": "mood_id",
            "affinity": "INTEGER",
            "notNull": true
          },
          {
            "fieldPath": "mood_type",
            "columnName": "mood_type",
            "affinity": "INTEGER",
            "notNull": true
          },
          {
            "fieldPath": "mood_caption",
            "columnName": "mood_caption",
            "affinity": "TEXT",
            "notNull": false
          },
          {
            "fieldPath": "mood_text",
            "columnName": "mood_text",
            "affinity": "TEXT",
            "notNull": false
          },
          {
            "fieldPath": "mood_status",
            "columnName": "mood_status",
            "affinity": "INTEGER",
            "notNull": true
          },
          {
            "fieldPath": "view_count",
            "columnName": "view_count",
            "affinity": "INTEGER",
            "notNull": true
          },
          {
            "fieldPath": "font_color",
            "columnName": "font_color",
            "affinity": "TEXT",
            "notNull": false
          },
          {
            "fieldPath": "background_color",
            "columnName": "background_color",
            "affinity": "TEXT",
            "notNull": false
          },
          {
            "fieldPath": "photo_path",
            "columnName": "photo_path",
            "affinity": "TEXT",
            "notNull": false
          },
          {
            "fieldPath": "view_status",
            "columnName": "view_status",
            "affinity": "INTEGER",
            "notNull": true
          },
          {
            "fieldPath": "full_name",
            "columnName": "full_name",
            "affinity": "TEXT",
            "notNull": false
          },
          {
            "fieldPath": "mood_count",
            "columnName": "mood_count",
            "affinity": "INTEGER",
            "notNull": false
          },
          {
            "fieldPath": "viewed_moods",
            "columnName": "viewed_moods",
            "affinity": "INTEGER",
            "notNull": false
          },
          {
            "fieldPath": "user_photo",
            "columnName": "user_photo",
            "affinity": "TEXT",
            "notNull": false
          },
          {
            "fieldPath": "created_on",
            "columnName": "date_created",
            "affinity": "TEXT",
            "notNull": false
          }
        ],
        "primaryKey": {
          "columnNames": [
            "did"
          ],
          "autoGenerate": true
        },
        "indices": [
          {
            "name": "index_my_moods_table_mood_id",
            "unique": true,
            "columnNames": [
              "mood_id"
            ],
            "createSql": "CREATE UNIQUE INDEX `index_my_moods_table_mood_id` ON `${TABLE_NAME}` (`mood_id`)"
          }
        ],
        "foreignKeys": []
      },
      {
        "tableName": "main_moods_table",
        "createSql": "CREATE TABLE IF NOT EXISTS `${TABLE_NAME}` (`did` INTEGER PRIMARY KEY AUTOINCREMENT NOT NULL, `user_id` INTEGER NOT NULL, `full_name` TEXT, `mood_count` INTEGER, `viewed_moods` INTEGER, `user_photo` TEXT, `date_created` TEXT, `user_moods` TEXT NOT NULL)",
        "fields": [
          {
            "fieldPath": "id",
            "columnName": "did",
            "affinity": "INTEGER",
            "notNull": true
          },
          {
            "fieldPath": "user_id",
            "columnName": "user_id",
            "affinity": "INTEGER",
            "notNull": true
          },
          {
            "fieldPath": "full_name",
            "columnName": "full_name",
            "affinity": "TEXT",
            "notNull": false
          },
          {
            "fieldPath": "mood_count",
            "columnName": "mood_count",
            "affinity": "INTEGER",
            "notNull": false
          },
          {
            "fieldPath": "viewed_moods",
            "columnName": "viewed_moods",
            "affinity": "INTEGER",
            "notNull": false
          },
          {
            "fieldPath": "user_photo",
            "columnName": "user_photo",
            "affinity": "TEXT",
            "notNull": false
          },
          {
            "fieldPath": "created_on",
            "columnName": "date_created",
            "affinity": "TEXT",
            "notNull": false
          },
          {
            "fieldPath": "user_moods",
            "columnName": "user_moods",
            "affinity": "TEXT",
            "notNull": true
          }
        ],
        "primaryKey": {
          "columnNames": [
            "did"
          ],
          "autoGenerate": true
        },
        "indices": [
          {
            "name": "index_main_moods_table_user_id",
            "unique": true,
            "columnNames": [
              "user_id"
            ],
            "createSql": "CREATE UNIQUE INDEX `index_main_moods_table_user_id` ON `${TABLE_NAME}` (`user_id`)"
          }
        ],
        "foreignKeys": []
      }
    ],
    "setupQueries": [
      "CREATE TABLE IF NOT EXISTS room_master_table (id INTEGER PRIMARY KEY,identity_hash TEXT)",
      "INSERT OR REPLACE INTO room_master_table (id,identity_hash) VALUES(42, \"b244f78566540146e76198378b9aa5b1\")"
    ]
  }
}