{
  "formatVersion": 1,
  "database": {
    "version": 10,
    "identityHash": "5847f5deec58891457583e40ff2f2597",
    "entities": [
      {
        "tableName": "MyMoodsTable",
        "createSql": "CREATE TABLE IF NOT EXISTS `${TABLE_NAME}` (`did` INTEGER PRIMARY KEY AUTOINCREMENT NOT NULL, `time_posted` TEXT NOT NULL, `mood_id` INTEGER NOT NULL, `mood_type` INTEGER NOT NULL, `mood_caption` TEXT, `mood_text` TEXT, `mood_status` INTEGER NOT NULL, `view_count` INTEGER NOT NULL, `font_color` TEXT, `background_color` TEXT, `photo_path` TEXT, `view_status` INTEGER NOT NULL, `full_name` TEXT, `mood_count` INTEGER, `viewed_moods` INTEGER, `user_photo` TEXT, `date_created` TEXT)",
        "fields": [
          {
            "fieldPath": "id",
            "columnName": "did",
            "affinity": "INTEGER",
            "notNull": true
          },
          {
            "fieldPath": "time_posted",
            "columnName": "time_posted",
            "affinity": "TEXT",
            "notNull": true
          },
          {
            "fieldPath": "mood_id",
            "columnName": "mood_id",
            "affinity": "INTEGER",
            "notNull": true
          },
          {
            "fieldPath": "mood_type",
            "columnName": "mood_type",
            "affinity": "INTEGER",
            "notNull": true
          },
          {
            "fieldPath": "mood_caption",
            "columnName": "mood_caption",
            "affinity": "TEXT",
            "notNull": false
          },
          {
            "fieldPath": "mood_text",
            "columnName": "mood_text",
            "affinity": "TEXT",
            "notNull": false
          },
          {
            "fieldPath": "mood_status",
            "columnName": "mood_status",
            "affinity": "INTEGER",
            "notNull": true
          },
          {
            "fieldPath": "view_count",
            "columnName": "view_count",
            "affinity": "INTEGER",
            "notNull": true
          },
          {
            "fieldPath": "font_color",
            "columnName": "font_color",
            "affinity": "TEXT",
            "notNull": false
          },
          {
            "fieldPath": "background_color",
            "columnName": "background_color",
            "affinity": "TEXT",
            "notNull": false
          },
          {
            "fieldPath": "photo_path",
            "columnName": "photo_path",
            "affinity": "TEXT",
            "notNull": false
          },
          {
            "fieldPath": "view_status",
            "columnName": "view_status",
            "affinity": "INTEGER",
            "notNull": true
          },
          {
            "fieldPath": "full_name",
            "columnName": "full_name",
            "affinity": "TEXT",
            "notNull": false
          },
          {
            "fieldPath": "mood_count",
            "columnName": "mood_count",
            "affinity": "INTEGER",
            "notNull": false
          },
          {
            "fieldPath": "viewed_moods",
            "columnName": "viewed_moods",
            "affinity": "INTEGER",
            "notNull": false
          },
          {
            "fieldPath": "user_photo",
            "columnName": "user_photo",
            "affinity": "TEXT",
            "notNull": false
          },
          {
            "fieldPath": "created_on",
            "columnName": "date_created",
            "affinity": "TEXT",
            "notNull": false
          }
        ],
        "primaryKey": {
          "columnNames": [
            "did"
          ],
          "autoGenerate": true
        },
        "indices": [
          {
            "name": "index_MyMoodsTable_mood_id",
            "unique": true,
            "columnNames": [
              "mood_id"
            ],
            "createSql": "CREATE UNIQUE INDEX `index_MyMoodsTable_mood_id` ON `${TABLE_NAME}` (`mood_id`)"
          }
        ],
        "foreignKeys": []
      },
      {
        "tableName": "MainMoodsTable",
        "createSql": "CREATE TABLE IF NOT EXISTS `${TABLE_NAME}` (`did` INTEGER PRIMARY KEY AUTOINCREMENT NOT NULL, `user_id` INTEGER NOT NULL, `full_name` TEXT, `mood_count` INTEGER, `viewed_moods` INTEGER, `user_photo` TEXT, `date_created` TEXT, `user_moods` TEXT NOT NULL)",
        "fields": [
          {
            "fieldPath": "id",
            "columnName": "did",
            "affinity": "INTEGER",
            "notNull": true
          },
          {
            "fieldPath": "user_id",
            "columnName": "user_id",
            "affinity": "INTEGER",
            "notNull": true
          },
          {
            "fieldPath": "full_name",
            "columnName": "full_name",
            "affinity": "TEXT",
            "notNull": false
          },
          {
            "fieldPath": "mood_count",
            "columnName": "mood_count",
            "affinity": "INTEGER",
            "notNull": false
          },
          {
            "fieldPath": "viewed_moods",
            "columnName": "viewed_moods",
            "affinity": "INTEGER",
            "notNull": false
          },
          {
            "fieldPath": "user_photo",
            "columnName": "user_photo",
            "affinity": "TEXT",
            "notNull": false
          },
          {
            "fieldPath": "created_on",
            "columnName": "date_created",
            "affinity": "TEXT",
            "notNull": false
          },
          {
            "fieldPath": "user_moods",
            "columnName": "user_moods",
            "affinity": "TEXT",
            "notNull": true
          }
        ],
        "primaryKey": {
          "columnNames": [
            "did"
          ],
          "autoGenerate": true
        },
        "indices": [
          {
            "name": "index_MainMoodsTable_user_id",
            "unique": true,
            "columnNames": [
              "user_id"
            ],
            "createSql": "CREATE UNIQUE INDEX `index_MainMoodsTable_user_id` ON `${TABLE_NAME}` (`user_id`)"
          }
        ],
        "foreignKeys": []
      },
      {
        "tableName": "ChatHistoryTable",
        "createSql": "CREATE TABLE IF NOT EXISTS `${TABLE_NAME}` (`did` INTEGER PRIMARY KEY AUTOINCREMENT NOT NULL, `chat_id` INTEGER NOT NULL, `user_id` INTEGER NOT NULL, `recipient_id` INTEGER NOT NULL, `message` TEXT NOT NULL, `date_created` TEXT, `status` TEXT, `match_id` TEXT NOT NULL)",
        "fields": [
          {
            "fieldPath": "id",
            "columnName": "did",
            "affinity": "INTEGER",
            "notNull": true
          },
          {
            "fieldPath": "chat_id",
            "columnName": "chat_id",
            "affinity": "INTEGER",
            "notNull": true
          },
          {
            "fieldPath": "user_id",
            "columnName": "user_id",
            "affinity": "INTEGER",
            "notNull": true
          },
          {
            "fieldPath": "recipient_id",
            "columnName": "recipient_id",
            "affinity": "INTEGER",
            "notNull": true
          },
          {
            "fieldPath": "message",
            "columnName": "message",
            "affinity": "TEXT",
            "notNull": true
          },
          {
            "fieldPath": "date_created",
            "columnName": "date_created",
            "affinity": "TEXT",
            "notNull": false
          },
          {
            "fieldPath": "status",
            "columnName": "status",
            "affinity": "TEXT",
            "notNull": false
          },
          {
            "fieldPath": "match_id",
            "columnName": "match_id",
            "affinity": "TEXT",
            "notNull": true
          }
        ],
        "primaryKey": {
          "columnNames": [
            "did"
          ],
          "autoGenerate": true
        },
        "indices": [],
        "foreignKeys": []
      },
      {
        "tableName": "ChatDialogsTable",
        "createSql": "CREATE TABLE IF NOT EXISTS `${TABLE_NAME}` (`did` INTEGER PRIMARY KEY AUTOINCREMENT NOT NULL, `match_id` INTEGER NOT NULL, `full_name` TEXT NOT NULL, `photo_path` TEXT NOT NULL, `view_status` INTEGER, `last_seen_date` TEXT, `last_message` TEXT, `last_chat_date` TEXT, `unread_messages` INTEGER, `interest` TEXT, `recipient_id` INTEGER, `dob` TEXT, `about_me` TEXT, `job_title` TEXT, `school` TEXT, `dist_km` TEXT, `photo_count` INTEGER, `verification_status` INTEGER, `likes` INTEGER, `has_insta_photo` INTEGER)",
        "fields": [
          {
            "fieldPath": "id",
            "columnName": "did",
            "affinity": "INTEGER",
            "notNull": true
          },
          {
            "fieldPath": "match_id",
            "columnName": "match_id",
            "affinity": "INTEGER",
            "notNull": true
          },
          {
            "fieldPath": "full_name",
            "columnName": "full_name",
            "affinity": "TEXT",
            "notNull": true
          },
          {
            "fieldPath": "photo_path",
            "columnName": "photo_path",
            "affinity": "TEXT",
            "notNull": true
          },
          {
            "fieldPath": "view_status",
            "columnName": "view_status",
            "affinity": "INTEGER",
            "notNull": false
          },
          {
            "fieldPath": "last_seen_date",
            "columnName": "last_seen_date",
            "affinity": "TEXT",
            "notNull": false
          },
          {
            "fieldPath": "last_message",
            "columnName": "last_message",
            "affinity": "TEXT",
            "notNull": false
          },
          {
            "fieldPath": "last_chat_date",
            "columnName": "last_chat_date",
            "affinity": "TEXT",
            "notNull": false
          },
          {
            "fieldPath": "unread_messages",
            "columnName": "unread_messages",
            "affinity": "INTEGER",
            "notNull": false
          },
          {
            "fieldPath": "interests",
            "columnName": "interest",
            "affinity": "TEXT",
            "notNull": false
          },
          {
            "fieldPath": "recipient_id",
            "columnName": "recipient_id",
            "affinity": "INTEGER",
            "notNull": false
          },
          {
            "fieldPath": "dob",
            "columnName": "dob",
            "affinity": "TEXT",
            "notNull": false
          },
          {
            "fieldPath": "about_me",
            "columnName": "about_me",
            "affinity": "TEXT",
            "notNull": false
          },
          {
            "fieldPath": "job_title",
            "columnName": "job_title",
            "affinity": "TEXT",
            "notNull": false
          },
          {
            "fieldPath": "getSchool",
            "columnName": "school",
            "affinity": "TEXT",
            "notNull": false
          },
          {
            "fieldPath": "getDistance",
            "columnName": "dist_km",
            "affinity": "TEXT",
            "notNull": false
          },
          {
            "fieldPath": "getPhoto_Count",
            "columnName": "photo_count",
            "affinity": "INTEGER",
            "notNull": false
          },
          {
            "fieldPath": "getVerificatonStatus",
            "columnName": "verification_status",
            "affinity": "INTEGER",
            "notNull": false
          },
          {
            "fieldPath": "getLikesCount",
            "columnName": "likes",
            "affinity": "INTEGER",
            "notNull": false
          },
          {
            "fieldPath": "has_insta_photo",
            "columnName": "has_insta_photo",
            "affinity": "INTEGER",
            "notNull": false
          }
        ],
        "primaryKey": {
          "columnNames": [
            "did"
          ],
          "autoGenerate": true
        },
        "indices": [
          {
            "name": "index_ChatDialogsTable_match_id",
            "unique": true,
            "columnNames": [
              "match_id"
            ],
            "createSql": "CREATE UNIQUE INDEX `index_ChatDialogsTable_match_id` ON `${TABLE_NAME}` (`match_id`)"
          }
        ],
        "foreignKeys": []
      }
    ],
    "setupQueries": [
      "CREATE TABLE IF NOT EXISTS room_master_table (id INTEGER PRIMARY KEY,identity_hash TEXT)",
      "INSERT OR REPLACE INTO room_master_table (id,identity_hash) VALUES(42, \"5847f5deec58891457583e40ff2f2597\")"
    ]
  }
}