{
  "formatVersion": 1,
  "database": {
    "version": 2,
    "identityHash": "b0624e7fc5ae574c09e6ae0de951197b",
    "entities": [
      {
        "tableName": "top_picks",
        "createSql": "CREATE TABLE IF NOT EXISTS `${TABLE_NAME}` (`did` INTEGER PRIMARY KEY AUTOINCREMENT, `user_id` INTEGER NOT NULL, `name` TEXT, `about_me` TEXT, `show_age` INTEGER NOT NULL, `show_location` INTEGER NOT NULL, `my_age` INTEGER, `dist_km` REAL NOT NULL, `photo_path` TEXT, `photo_count` INTEGER, `job_title` TEXT, `school` TEXT, `interest` TEXT, `hours_left` INTEGER)",
        "fields": [
          {
            "fieldPath": "id",
            "columnName": "did",
            "affinity": "INTEGER",
            "notNull": false
          },
          {
            "fieldPath": "user_id",
            "columnName": "user_id",
            "affinity": "INTEGER",
            "notNull": true
          },
          {
            "fieldPath": "name",
            "columnName": "name",
            "affinity": "TEXT",
            "notNull": false
          },
          {
            "fieldPath": "about_me",
            "columnName": "about_me",
            "affinity": "TEXT",
            "notNull": false
          },
          {
            "fieldPath": "show_age",
            "columnName": "show_age",
            "affinity": "INTEGER",
            "notNull": true
          },
          {
            "fieldPath": "show_location",
            "columnName": "show_location",
            "affinity": "INTEGER",
            "notNull": true
          },
          {
            "fieldPath": "age",
            "columnName": "my_age",
            "affinity": "INTEGER",
            "notNull": false
          },
          {
            "fieldPath": "distKm",
            "columnName": "dist_km",
            "affinity": "REAL",
            "notNull": true
          },
          {
            "fieldPath": "photo_path",
            "columnName": "photo_path",
            "affinity": "TEXT",
            "notNull": false
          },
          {
            "fieldPath": "photo_count",
            "columnName": "photo_count",
            "affinity": "INTEGER",
            "notNull": false
          },
          {
            "fieldPath": "job_title",
            "columnName": "job_title",
            "affinity": "TEXT",
            "notNull": false
          },
          {
            "fieldPath": "school",
            "columnName": "school",
            "affinity": "TEXT",
            "notNull": false
          },
          {
            "fieldPath": "interest",
            "columnName": "interest",
            "affinity": "TEXT",
            "notNull": false
          },
          {
            "fieldPath": "hrs_left",
            "columnName": "hours_left",
            "affinity": "INTEGER",
            "notNull": false
          }
        ],
        "primaryKey": {
          "columnNames": [
            "did"
          ],
          "autoGenerate": true
        },
        "indices": [
          {
            "name": "index_top_picks_user_id",
            "unique": true,
            "columnNames": [
              "user_id"
            ],
            "createSql": "CREATE UNIQUE INDEX `index_top_picks_user_id` ON `${TABLE_NAME}` (`user_id`)"
          }
        ],
        "foreignKeys": []
      }
    ],
    "setupQueries": [
      "CREATE TABLE IF NOT EXISTS room_master_table (id INTEGER PRIMARY KEY,identity_hash TEXT)",
      "INSERT OR REPLACE INTO room_master_table (id,identity_hash) VALUES(42, \"b0624e7fc5ae574c09e6ae0de951197b\")"
    ]
  }
}